<?xml version="1.0" encoding="utf-8"?>
<!-- Generator: Adobe Illustrator 19.0.0, SVG Export Plug-In . SVG Version: 6.00 Build 0)  -->
<svg version="1.1" id="Capa_1" xmlns="http://www.w3.org/2000/svg" xmlns:xlink="http://www.w3.org/1999/xlink" x="0px" y="0px"
	 viewBox="0 0 100 100" style="enable-background:new 0 0 100 100;" xml:space="preserve">
<style type="text/css">
	.st0{fill:#9D9D9C;}
</style>
<path id="XMLID_2_" class="st0" d="M99.4,59.3V40.5H89.3c-1-4.2-2.7-8.2-4.9-11.8l7.1-7.1L78.2,8.2l-7.1,7.1
	c-3.6-2.2-7.6-3.9-11.8-4.9V0.4H40.5v10.1c-4.2,1-8.2,2.7-11.8,4.9l-7.1-7.1L8.2,21.5l7.1,7.1c-2.2,3.6-3.9,7.6-4.9,11.8H0.4v18.8
	h10.1c1,4.2,2.7,8.2,4.9,11.8l-7.1,7.1l13.3,13.3l7.1-7.1c3.6,2.2,7.6,3.9,11.8,4.9v10.1h18.8V89.3c4.2-1,8.2-2.7,11.8-4.9l7.1,7.1
	l13.3-13.3l-7.1-7.1c2.2-3.6,3.9-7.6,4.9-11.8H99.4z M49.9,75.3c-14.1,0-25.5-11.4-25.5-25.5s11.4-25.5,25.5-25.5
	c14.1,0,25.5,11.4,25.5,25.5S63.9,75.3,49.9,75.3z"/>
</svg>
